{
  "artists": {
    "href": "https://api.spotify.com/v1/search?offset=0&limit=20&query=test%20artist&type=artist",
    "limit": 20,
    "next": "https://api.spotify.com/v1/search?offset=20&limit=20&query=test%20artist&type=artist",
    "offset": 0,
    "previous": null,
    "total": 697,
    "items": [
      {
        "external_urls": {
          "spotify": "https://open.spotify.com/artist/5ySMSWslMAgIZcnT3IYMgA"
        },
        "followers": {
          "href": null,
          "total": 196
        },
        "genres": [],
        "href": "https://api.spotify.com/v1/artists/5ySMSWslMAgIZcnT3IYMgA",
        "id": "5ySMSWslMAgIZcnT3IYMgA",
        "images": [
          {
            "url": "https://i.scdn.co/image/ab6761610000e5ebbb33893a7dbcf17a11f04a20",
            "height": 640,
            "width": 640
          },
          {
            "url": "https://i.scdn.co/image/ab67616100005174bb33893a7dbcf17a11f04a20",
            "height": 320,
            "width": 320
          },
          {
            "url": "https://i.scdn.co/image/ab6761610000f178bb33893a7dbcf17a11f04a20",
            "height": 160,
            "width": 160
          }
        ],
        "name": "Test Patterns",
        "popularity": 22,
        "type": "artist",
        "uri": "spotify:artist:5ySMSWslMAgIZcnT3IYMgA"
      },
      {
        "external_urls": {
          "spotify": "https://open.spotify.com/artist/2Kqoewlz2KnNRl66Dy5siR"
        },
        "followers": {
          "href": null,
          "total": 875
        },
        "genres": [
          "deathrock",
          "industrial"
        ],
        "href": "https://api.spotify.com/v1/artists/2Kqoewlz2KnNRl66Dy5siR",
        "id": "2Kqoewlz2KnNRl66Dy5siR",
        "images": [
          {
            "url": "https://i.scdn.co/image/ab67616d0000b273f5c204e60ebea0d8447a25f9",
            "height": 640,
            "width": 640
          },
          {
            "url": "https://i.scdn.co/image/ab67616d00001e02f5c204e60ebea0d8447a25f9",
            "height": 300,
            "width": 300
          },
          {
            "url": "https://i.scdn.co/image/ab67616d00004851f5c204e60ebea0d8447a25f9",
            "height": 64,
            "width": 64
          }
        ],
        "name": "TEST",
        "popularity": 2,
        "type": "artist",
        "uri": "spotify:artist:2Kqoewlz2KnNRl66Dy5siR"
      },
      {
        "external_urls": {
          "spotify": "https://open.spotify.com/artist/0dLbwD2cMc3eBrXHlZQcCB"
        },
        "followers": {
          "href": null,
          "total": 1
        },
        "genres": [],
        "href": "https://api.spotify.com/v1/artists/0dLbwD2cMc3eBrXHlZQcCB",
        "id": "0dLbwD2cMc3eBrXHlZQcCB",
        "images": [],
        "name": "Test Artist 3",
        "popularity": 0,
        "type": "artist",
        "uri": "spotify:artist:0dLbwD2cMc3eBrXHlZQcCB"
      },
      {
        "external_urls": {
          "spotify": "https://open.spotify.com/artist/7rGQoSI2Yfgkhkd5f6pyPa"
        },
        "followers": {
          "href": null,
          "total": 1
        },
        "genres": [],
        "href": "https://api.spotify.com/v1/artists/7rGQoSI2Yfgkhkd5f6pyPa",
        "id": "7rGQoSI2Yfgkhkd5f6pyPa",
        "images": [
          {
            "url": "https://i.scdn.co/image/ab67616d0000b273c917f457b75b2830064b1307",
            "height": 640,
            "width": 640
          },
          {
            "url": "https://i.scdn.co/image/ab67616d00001e02c917f457b75b2830064b1307",
            "height": 300,
            "width": 300
          },
          {
            "url": "https://i.scdn.co/image/ab67616d00004851c917f457b75b2830064b1307",
            "height": 64,
            "width": 64
          }
        ],
        "name": "Test Artist 2",
        "popularity": 0,
        "type": "artist",
        "uri": "spotify:artist:7rGQoSI2Yfgkhkd5f6pyPa"
      },
      {
        "external_urls": {
          "spotify": "https://open.spotify.com/artist/0QKL9FKiRoerO2TYA5rCYD"
        },
        "followers": {
          "href": null,
          "total": 19
        },
        "genres": [],
        "href": "https://api.spotify.com/v1/artists/0QKL9FKiRoerO2TYA5rCYD",
        "id": "0QKL9FKiRoerO2TYA5rCYD",
        "images": [
          {
            "url": "https://i.scdn.co/image/ab6761610000e5eb08f14d5616aedda77810f93a",
            "height": 640,
            "width": 640
          },
          {
            "url": "https://i.scdn.co/image/ab6761610000517408f14d5616aedda77810f93a",
            "height": 320,
            "width": 320
          },
          {
            "url": "https://i.scdn.co/image/ab6761610000f17808f14d5616aedda77810f93a",
            "height": 160,
            "width": 160
          }
        ],
        "name": "Test Artist",
        "popularity": 0,
        "type": "artist",
        "uri": "spotify:artist:0QKL9FKiRoerO2TYA5rCYD"
      },
      {
        "external_urls": {
          "spotify": "https://open.spotify.com/artist/4STOTT7x2M5DPmguD3miJp"
        },
        "followers": {
          "href": null,
          "total": 252
        },
        "genres": [
          "shibuya-kei"
        ],
        "href": "https://api.spotify.com/v1/artists/4STOTT7x2M5DPmguD3miJp",
        "id": "4STOTT7x2M5DPmguD3miJp",
        "images": [
          {
            "url": "https://i.scdn.co/image/ab67616d0000b273569a5146c45ef75c75bcc8dc",
            "height": 640,
            "width": 640
          },
          {
            "url": "https://i.scdn.co/image/ab67616d00001e02569a5146c45ef75c75bcc8dc",
            "height": 300,
            "width": 300
          },
          {
            "url": "https://i.scdn.co/image/ab67616d00004851569a5146c45ef75c75bcc8dc",
            "height": 64,
            "width": 64
          }
        ],
        "name": "TESTPATTERN",
        "popularity": 6,
        "type": "artist",
        "uri": "spotify:artist:4STOTT7x2M5DPmguD3miJp"
      },
      {
        "external_urls": {
          "spotify": "https://open.spotify.com/artist/66I2WMz7n83rttlhbLOtbj"
        },
        "followers": {
          "href": null,
          "total": 0
        },
        "genres": [],
        "href": "https://api.spotify.com/v1/artists/66I2WMz7n83rttlhbLOtbj",
        "id": "66I2WMz7n83rttlhbLOtbj",
        "images": [
          {
            "url": "https://i.scdn.co/image/ab67616d0000b27394e048666fe29a95e4ae6cae",
            "height": 640,
            "width": 640
          },
          {
            "url": "https://i.scdn.co/image/ab67616d00001e0294e048666fe29a95e4ae6cae",
            "height": 300,
            "width": 300
          },
          {
            "url": "https://i.scdn.co/image/ab67616d0000485194e048666fe29a95e4ae6cae",
            "height": 64,
            "width": 64
          }
        ],
        "name": "Test Drive",
        "popularity": 13,
        "type": "artist",
        "uri": "spotify:artist:66I2WMz7n83rttlhbLOtbj"
      },
      {
        "external_urls": {
          "spotify": "https://open.spotify.com/artist/51hfP8BcSbQoL3DFrwNNCA"
        },
        "followers": {
          "href": null,
          "total": 1684
        },
        "genres": [
          "post-punk",
          "noise rock"
        ],
        "href": "https://api.spotify.com/v1/artists/51hfP8BcSbQoL3DFrwNNCA",
        "id": "51hfP8BcSbQoL3DFrwNNCA",
        "images": [
          {
            "url": "https://i.scdn.co/image/ab6761610000e5ebb46736eacfa1cf6411e64ec6",
            "height": 640,
            "width": 640
          },
          {
            "url": "https://i.scdn.co/image/ab67616100005174b46736eacfa1cf6411e64ec6",
            "height": 320,
            "width": 320
          },
          {
            "url": "https://i.scdn.co/image/ab6761610000f178b46736eacfa1cf6411e64ec6",
            "height": 160,
            "width": 160
          }
        ],
        "name": "test plan",
        "popularity": 13,
        "type": "artist",
        "uri": "spotify:artist:51hfP8BcSbQoL3DFrwNNCA"
      },
      {
        "external_urls": {
          "spotify": "https://open.spotify.com/artist/29368ROKD4xAuPUO5Gcl8L"
        },
        "followers": {
          "href": null,
          "total": 211
        },
        "genres": [],
        "href": "https://api.spotify.com/v1/artists/29368ROKD4xAuPUO5Gcl8L",
        "id": "29368ROKD4xAuPUO5Gcl8L",
        "images": [
          {
            "url": "https://i.scdn.co/image/ab6761610000e5ebb69a1957a34e7787700f2757",
            "height": 640,
            "width": 640
          },
          {
            "url": "https://i.scdn.co/image/ab67616100005174b69a1957a34e7787700f2757",
            "height": 320,
            "width": 320
          },
          {
            "url": "https://i.scdn.co/image/ab6761610000f178b69a1957a34e7787700f2757",
            "height": 160,
            "width": 160
          }
        ],
        "name": "Tested",
        "popularity": 7,
        "type": "artist",
        "uri": "spotify:artist:29368ROKD4xAuPUO5Gcl8L"
      },
      {
        "external_urls": {
          "spotify": "https://open.spotify.com/artist/2XcStUEu0iZuigNXbywjel"
        },
        "followers": {
          "href": null,
          "total": 0
        },
        "genres": [],
        "href": "https://api.spotify.com/v1/artists/2XcStUEu0iZuigNXbywjel",
        "id": "2XcStUEu0iZuigNXbywjel",
        "images": [],
        "name": "test artist lname",
        "popularity": 0,
        "type": "artist",
        "uri": "spotify:artist:2XcStUEu0iZuigNXbywjel"
      },
      {
        "external_urls": {
          "spotify": "https://open.spotify.com/artist/5kOdeWIjHwtPpNqG9Y8SLs"
        },
        "followers": {
          "href": null,
          "total": 241
        },
        "genres": [],
        "href": "https://api.spotify.com/v1/artists/5kOdeWIjHwtPpNqG9Y8SLs",
        "id": "5kOdeWIjHwtPpNqG9Y8SLs",
        "images": [],
        "name": "Test e2e Artist 2",
        "popularity": 0,
        "type": "artist",
        "uri": "spotify:artist:5kOdeWIjHwtPpNqG9Y8SLs"
      },
      {
        "external_urls": {
          "spotify": "https://open.spotify.com/artist/2hTfdjPy0QJLqUukmI8LeO"
        },
        "followers": {
          "href": null,
          "total": 1
        },
        "genres": [],
        "href": "https://api.spotify.com/v1/artists/2hTfdjPy0QJLqUukmI8LeO",
        "id": "2hTfdjPy0QJLqUukmI8LeO",
        "images": [
          {
            "url": "https://i.scdn.co/image/ab67616d0000b2734c9ff7c26a47669e85842608",
            "height": 640,
            "width": 640
          },
          {
            "url": "https://i.scdn.co/image/ab67616d00001e024c9ff7c26a47669e85842608",
            "height": 300,
            "width": 300
          },
          {
            "url": "https://i.scdn.co/image/ab67616d000048514c9ff7c26a47669e85842608",
            "height": 64,
            "width": 64
          }
        ],
        "name": "Test e2e Artist 4",
        "popularity": 0,
        "type": "artist",
        "uri": "spotify:artist:2hTfdjPy0QJLqUukmI8LeO"
      },
      {
        "external_urls": {
          "spotify": "https://open.spotify.com/artist/45ruAQCrp7a4t4pbSoZJhL"
        },
        "followers": {
          "href": null,
          "total": 1
        },
        "genres": [],
        "href": "https://api.spotify.com/v1/artists/45ruAQCrp7a4t4pbSoZJhL",
        "id": "45ruAQCrp7a4t4pbSoZJhL",
        "images": [
          {
            "url": "https://i.scdn.co/image/ab67616d0000b2739ea607c368d28a858e8c7175",
            "height": 640,
            "width": 640
          },
          {
            "url": "https://i.scdn.co/image/ab67616d00001e029ea607c368d28a858e8c7175",
            "height": 300,
            "width": 300
          },
          {
            "url": "https://i.scdn.co/image/ab67616d000048519ea607c368d28a858e8c7175",
            "height": 64,
            "width": 64
          }
        ],
        "name": "Test e2e Artist 1",
        "popularity": 0,
        "type": "artist",
        "uri": "spotify:artist:45ruAQCrp7a4t4pbSoZJhL"
      },
      {
        "external_urls": {
          "spotify": "https://open.spotify.com/artist/6WIhZCBaYsRYlHfaMzpwg0"
        },
        "followers": {
          "href": null,
          "total": 31
        },
        "genres": [],
        "href": "https://api.spotify.com/v1/artists/6WIhZCBaYsRYlHfaMzpwg0",
        "id": "6WIhZCBaYsRYlHfaMzpwg0",
        "images": [
          {
            "url": "https://i.scdn.co/image/ab6761610000e5eb6f89763a2da56015ce85e78b",
            "height": 640,
            "width": 640
          },
          {
            "url": "https://i.scdn.co/image/ab676161000051746f89763a2da56015ce85e78b",
            "height": 320,
            "width": 320
          },
          {
            "url": "https://i.scdn.co/image/ab6761610000f1786f89763a2da56015ce85e78b",
            "height": 160,
            "width": 160
          }
        ],
        "name": "SOUNDTEST",
        "popularity": 6,
        "type": "artist",
        "uri": "spotify:artist:6WIhZCBaYsRYlHfaMzpwg0"
      },
      {
        "external_urls": {
          "spotify": "https://open.spotify.com/artist/0WLUSBw4LnTBusdqE5VmYF"
        },
        "followers": {
          "href": null,
          "total": 2
        },
        "genres": [],
        "href": "https://api.spotify.com/v1/artists/0WLUSBw4LnTBusdqE5VmYF",
        "id": "0WLUSBw4LnTBusdqE5VmYF",
        "images": [],
        "name": "Testimony the Artist",
        "popularity": 0,
        "type": "artist",
        "uri": "spotify:artist:0WLUSBw4LnTBusdqE5VmYF"
      },
      {
        "external_urls": {
          "spotify": "https://open.spotify.com/artist/6no761yNpM0CHVjFBitbGp"
        },
        "followers": {
          "href": null,
          "total": 2
        },
        "genres": [],
        "href": "https://api.spotify.com/v1/artists/6no761yNpM0CHVjFBitbGp",
        "id": "6no761yNpM0CHVjFBitbGp",
        "images": [
          {
            "url": "https://i.scdn.co/image/ab67616d0000b273fa0ac4f28ac02ab1a60f197c",
            "height": 640,
            "width": 640
          },
          {
            "url": "https://i.scdn.co/image/ab67616d00001e02fa0ac4f28ac02ab1a60f197c",
            "height": 300,
            "width": 300
          },
          {
            "url": "https://i.scdn.co/image/ab67616d00004851fa0ac4f28ac02ab1a60f197c",
            "height": 64,
            "width": 64
          }
        ],
        "name": "Test Artist Please Ignore",
        "popularity": 0,
        "type": "artist",
        "uri": "spotify:artist:6no761yNpM0CHVjFBitbGp"
      },
      {
        "external_urls": {
          "spotify": "https://open.spotify.com/artist/7y7RBNRwAtUiz8ISkYrMjd"
        },
        "followers": {
          "href": null,
          "total": 11
        },
        "genres": [],
        "href": "https://api.spotify.com/v1/artists/7y7RBNRwAtUiz8ISkYrMjd",
        "id": "7y7RBNRwAtUiz8ISkYrMjd",
        "images": [
          {
            "url": "https://i.scdn.co/image/ab67616d0000b2738595468723849a6c68e48ebd",
            "height": 640,
            "width": 640
          },
          {
            "url": "https://i.scdn.co/image/ab67616d00001e028595468723849a6c68e48ebd",
            "height": 300,
            "width": 300
          },
          {
            "url": "https://i.scdn.co/image/ab67616d000048518595468723849a6c68e48ebd",
            "height": 64,
            "width": 64
          }
        ],
        "name": "Testimony Lyrical Artist",
        "popularity": 0,
        "type": "artist",
        "uri": "spotify:artist:7y7RBNRwAtUiz8ISkYrMjd"
      },
      {
        "external_urls": {
          "spotify": "https://open.spotify.com/artist/5zEQC9Hbg0Sql7lQB466xD"
        },
        "followers": {
          "href": null,
          "total": 8277
        },
        "genres": [
          "hyperpop"
        ],
        "href": "https://api.spotify.com/v1/artists/5zEQC9Hbg0Sql7lQB466xD",
        "id": "5zEQC9Hbg0Sql7lQB466xD",
        "images": [
          {
            "url": "https://i.scdn.co/image/ab6761610000e5eb9a8a66b8987e12d9fae44668",
            "height": 640,
            "width": 640
          },
          {
            "url": "https://i.scdn.co/image/ab676161000051749a8a66b8987e12d9fae44668",
            "height": 320,
            "width": 320
          },
          {
            "url": "https://i.scdn.co/image/ab6761610000f1789a8a66b8987e12d9fae44668",
            "height": 160,
            "width": 160
          }
        ],
        "name": "twst",
        "popularity": 23,
        "type": "artist",
        "uri": "spotify:artist:5zEQC9Hbg0Sql7lQB466xD"
      },
      {
        "external_urls": {
          "spotify": "https://open.spotify.com/artist/78STd1oWe0JpbnfkZlTh9K"
        },
        "followers": {
          "href": null,
          "total": 24
        },
        "genres": [],
        "href": "https://api.spotify.com/v1/artists/78STd1oWe0JpbnfkZlTh9K",
        "id": "78STd1oWe0JpbnfkZlTh9K",
        "images": [],
        "name": "Daniel En Test",
        "popularity": 21,
        "type": "artist",
        "uri": "spotify:artist:78STd1oWe0JpbnfkZlTh9K"
      },
      {
        "external_urls": {
          "spotify": "https://open.spotify.com/artist/1K3a2VWnyszfzzdnT8iu0e"
        },
        "followers": {
          "href": null,
          "total": 16450
        },
        "genres": [],
        "href": "https://api.spotify.com/v1/artists/1K3a2VWnyszfzzdnT8iu0e",
        "id": "1K3a2VWnyszfzzdnT8iu0e",
        "images": [
          {
            "url": "https://i.scdn.co/image/ab6761610000e5ebada7ad9e51388834105deb7b",
            "height": 640,
            "width": 640
          },
          {
            "url": "https://i.scdn.co/image/ab67616100005174ada7ad9e51388834105deb7b",
            "height": 320,
            "width": 320
          },
          {
            "url": "https://i.scdn.co/image/ab6761610000f178ada7ad9e51388834105deb7b",
            "height": 160,
            "width": 160
          }
        ],
        "name": "Texture",
        "popularity": 59,
        "type": "artist",
        "uri": "spotify:artist:1K3a2VWnyszfzzdnT8iu0e"
      }
    ]
  }
}